W. Zane Billings – Intro to Bootstrap CIs
…
    # Store results in output matrix
    res[i, 1] <- p_p
    res[i, 2] <- p_t
    res[i, 3] <- RR
    res[i, 4] <- 1 - RR
}

res <- tibble::as_tibble(res)
print(res, n = 6)

# A tibble: 199 × 4
    p_p    p_t    RR    VE
  <dbl>  <dbl> <dbl> <dbl>
1 0.544 0.0698 0.128 0.872
2 0.490 0.196  0.400 0.600
3 0.46  0.12   0.261 0.739
4 0.467 0.15   0.321 0.679
5 0.533 0.145  0.273 0.727
6 0.341 0.125  0.367 0.633
# … with 193 more rows
…
