Increase vs post titer as regression outcome – W. Zane Billings
…
    dat <- tibble::tibble(
        log_pre = rnorm(N, pre_mean, pre_var),
        pre = (2 ^ log_pre),
        noise = rnorm(N, 0, error_var),
        log_post = alpha + beta * log_pre + noise,
        post = (2 ^ log_post),
        TI = log_post - log_pre,
        FC = 2 ^ TI
    )
    return(dat)
}
sim_dat <- do.call(gen_data, sim_parms)
print(sim_dat, n = 5)

# A tibble: 1,000 × 7
  log_pre     pre  noise log_post  post    TI     FC
    <dbl>   <dbl>  <dbl>    <dbl> <dbl> <dbl>  <dbl>
1   6.95  124.    -1.72      4.75  27.0 -2.20  0.218
2  -0.501   0.707  1.83      4.58  23.9  5.08 33.8  
3   2.02    4.04   0.706     4.71  26.2  2.70  6.49 
4   0.832   1.78   1.82      5.23  37.6  4.40 21.1  
5   5.91   60.0   -1.23      4.72  26.4 -1.19  0.439
# … with 995 more rows
…
